Submits/RTL_Design_and_Integration_Material/Verilog_codes/31_Asynchronous_FIFO/dump.vcd
$date
	Sat Apr 29 17:16:14 2023
$end
$version
	QuestaSim Version 10.6c
$end
$timescale
	1ns
$end

$scope module tb $end
$var parameter 32 ! DEPTH $end
$var parameter 32 " WIDTH $end
$var parameter 32 # PTR_WIDTH $end
$var parameter 32 $ WR_CK_TP $end
$var parameter 32 % RD_CLK_TP $end
$var reg 1 & rd_clk_i $end
$var reg 1 ' wr_clk_i $end
$var reg 1 ( rst_i $end
$var reg 1 ) wr_en_i $end
$var reg 1 * rd_en_i $end
$var reg 8 + wdata_i [7:0] $end
$var wire 1 , wr_error_o $end
$var wire 1 - rd_error_o $end
$var wire 1 . full_o $end
$var wire 1 / empty_o $end
$var wire 1 0 rdata_o [7] $end
$var wire 1 1 rdata_o [6] $end
$var wire 1 2 rdata_o [5] $end
$var wire 1 3 rdata_o [4] $end
$var wire 1 4 rdata_o [3] $end
$var wire 1 5 rdata_o [2] $end
$var wire 1 6 rdata_o [1] $end
$var wire 1 7 rdata_o [0] $end
$var integer 32 8 num_wr $end
$var integer 32 9 num_rd $end
$var integer 32 : i $end
$var integer 32 ; j $end
$var integer 32 < k $end
$var integer 32 = l $end
$var integer 32 > wr_delay $end
$var integer 32 ? rd_delay $end
$var reg 240 @ testname [240:1] $end

$scope task write_fifo $end
$var integer 32 A num_wr $end
$upscope $end

$scope task read_fifo $end
$var integer 32 B num_rd $end
$upscope $end

$scope module dut $end
$var parameter 32 C DEPTH $end
$var parameter 32 D WIDTH $end
$var parameter 32 E PTR_WIDTH $end
$var wire 1 F rd_clk_i $end
$var wire 1 G wr_clk_i $end
$var wire 1 H rst_i $end
$var wire 1 I wr_en_i $end
$var wire 1 J rd_en_i $end
$var wire 1 K wdata_i [7] $end
$var wire 1 L wdata_i [6] $end
$var wire 1 M wdata_i [5] $end
$var wire 1 N wdata_i [4] $end
$var wire 1 O wdata_i [3] $end
$var wire 1 P wdata_i [2] $end
$var wire 1 Q wdata_i [1] $end
$var wire 1 R wdata_i [0] $end
$var reg 1 S wr_error_o $end
$var reg 1 T rd_error_o $end
$var reg 1 U full_o $end
$var reg 1 V empty_o $end
$var reg 8 W rdata_o [7:0] $end
$var reg 4 X rd_ptr [3:0] $end
$var reg 4 Y wr_ptr [3:0] $end
$var reg 1 Z wr_toggle_f $end
$var reg 1 [ rd_toggle_f $end
$var reg 4 \ rd_ptr_gray [3:0] $end
$var reg 4 ] wr_ptr_gray [3:0] $end
$var reg 4 ^ rd_ptr_gray_wr_clk [3:0] $end
$var reg 4 _ wr_ptr_gray_rd_clk [3:0] $end
$var reg 1 ` wr_toggle_f_rd_clk $end
$var reg 1 a rd_toggle_f_wr_clk $end
$var integer 32 b i $end
$upscope $end
$upscope $end
$enddefinitions $end
#0
$dumpvars
0&
0'
1(
0)
0*
b0 +
b11101000110010101110011011101000101111101100011011011110110111001100011011101010111001001110010011001010110111001110100010111110111011101110010010111110111001001100100 @
xS
xT
xU
xV
bx W
bx X
bx Y
xZ
x[
bx \
bx ]
bx ^
bx _
x`
xa
b10000 !
b1000 "
b100 #
b1010 $
b1110 %
b10000 C
b1000 D
b100 E
bx 8
bx 9
bx :
bx ;
bx <
bx =
bx >
bx ?
bx b
bx A
bx B
x,
x-
x.
x/
x7
x6
x5
x4
x3
x2
x1
x0
0J
0I
0R
0Q
0P
0O
0N
0M
0L
0K
1H
0G
0F
$end
#5
1'
1G
0S
0T
0U
1V
b0 W
b0 X
b0 Y
b0 \
b0 ]
b0 ^
b0 _
0Z
0[
0`
0a
b0 b
b1 b
b10 b
b11 b
b100 b
b101 b
b110 b
b111 b
b1000 b
b1001 b
b1010 b
b1011 b
b1100 b
b1101 b
b1110 b
b1111 b
b10000 b
0(
b0 <
b1 A
b0 :
b0 =
b1 B
b0 ;
0,
0-
0.
1/
07
06
05
04
03
02
01
00
0H
0V
1V
#7
1&
1F
1*
b1 ;
1J
#10
0'
0G
#14
0&
0F
#15
1'
1G
1)
b100100 +
b1 :
1I
1P
1M
#20
0'
0G
#21
1&
1F
1T
0*
b1 ?
1-
0J
#25
1'
1G
b1 Y
b1 ]
0)
b0 +
b10 >
0I
0P
0M
0V
1V
#28
0&
0F
#30
0'
0G
#35
1&
1'
1F
1G
0T
b1 =
b0 ;
0-
b1 _
0V
0/
#40
0'
0G
#42
0&
0F
#45
1'
1G
b1 <
b0 :
#49
1&
1F
1*
b1 ;
1J
#50
0'
0G
#55
1'
1G
1)
b10000001 +
b1 :
1I
1R
1K
#56
0&
0F
#60
0'
0G
#63
1&
1F
b100100 W
b1 X
b1 \
0*
b110 ?
15
12
0J
1V
1/
#65
1'
1G
b10 Y
b11 ]
0)
b0 +
0I
0R
0K
0V
1V
b1 ^
0V
1V
#70
0&
0'
0F
0G
#75
1'
1G
#77
1&
1F
b11 _
0V
0/
#80
0'
0G
#84
0&
0F
#85
1'
1G
b10 <
b0 :
#90
0'
0G
#91
1&
1F
#95
1'
1G
1)
b1001 +
b1 :
1I
1R
1O
#98
0&
0F
#100
0'
0G
#105
1&
1'
1F
1G
b11 Y
b10 ]
0)
b0 +
b1 >
0I
0R
0O
b10 _
#110
0'
0G
#112
0&
0F
#115
1'
1G
b11 <
b0 :
#119
1&
1F
#120
0'
0G
#125
1'
1G
1)
b1100011 +
b1 :
1I
1R
1Q
1M
1L
#126
0&
0F
#130
0'
0G
#133
1&
1F
#135
1'
1G
b100 Y
b110 ]
0)
b0 +
b100 >
0I
0R
0Q
0M
0L
#140
0&
0'
0F
0G
#145
1'
1G
#147
1&
1F
b10 =
b0 ;
b110 _
#150
0'
0G
#154
0&
0F
#155
1'
1G
#160
0'
0G
#161
1&
1F
1*
b1 ;
1J
#165
1'
1G
#168
0&
0F
#170
0'
0G
#175
1&
1'
1F
1G
b10000001 W
b10 X
b11 \
0*
b11 ?
b100 <
b0 :
17
05
02
10
0J
#180
0'
0G
#182
0&
0F
#185
1'
1G
1)
b1101 +
b1 :
1I
1R
1P
1O
b11 ^
#189
1&
1F
#190
0'
0G
#195
1'
1G
b101 Y
b111 ]
0)
b0 +
b111 >
0I
0R
0P
0O
#196
0&
0F
#200
0'
0G
#203
1&
1F
b111 _
#205
1'
1G
#210
0&
0'
0F
0G
#215
1'
1G
#217
1&
1F
b11 =
b0 ;
#220
0'
0G
#224
0&
0F
#225
1'
1G
#230
0'
0G
#231
1&
1F
1*
b1 ;
1J
#235
1'
1G
#238
0&
0F
#240
0'
0G
#245
1&
1'
1F
1G
b1001 W
b11 X
b10 \
0*
b110 ?
14
00
0J
#250
0'
0G
#252
0&
0F
#255
1'
1G
b10 ^
#259
1&
1F
#260
0'
0G
#265
1'
1G
b101 <
b0 :
#266
0&
0F
#270
0'
0G
#273
1&
1F
#275
1'
1G
1)
b10001101 +
b1 :
1I
1R
1P
1O
1K
#280
0&
0'
0F
0G
#285
1'
1G
b110 Y
b101 ]
0)
b0 +
b1010 >
0I
0R
0P
0O
0K
#287
1&
1F
b101 _
#290
0'
0G
#294
0&
0F
#295
1'
1G
#300
0'
0G
#301
1&
1F
#305
1'
1G
#308
0&
0F
#310
0'
0G
#315
1&
1'
1F
1G
#320
0'
0G
#322
0&
0F
#325
1'
1G
#329
1&
1F
b100 =
b0 ;
#330
0'
0G
#335
1'
1G
#336
0&
0F
#340
0'
0G
#343
1&
1F
1*
b1 ;
1J
#345
1'
1G
#350
0&
0'
0F
0G
#355
1'
1G
#357
1&
1F
b1100011 W
b100 X
b110 \
0*
16
04
12
11
0J
#360
0'
0G
#364
0&
0F
#365
1'
1G
b110 ^
#370
0'
0G
#371
1&
1F
#375
1'
1G
#378
0&
0F
#380
0'
0G
#385
1&
1'
1F
1G
b110 <
b0 :
#390
0'
0G
#392
0&
0F
#395
1'
1G
1)
b1100101 +
b1 :
1I
1R
1P
1M
1L
#399
1&
1F
#400
0'
0G
#405
1'
1G
b111 Y
b100 ]
0)
b0 +
b10 >
0I
0R
0P
0M
0L
#406
0&
0F
#410
0'
0G
#413
1&
1F
b100 _
#415
1'
1G
#420
0&
0'
0F
0G
#425
1'
1G
b111 <
b0 :
#427
1&
1F
#430
0'
0G
#434
0&
0F
#435
1'
1G
1)
b10010 +
b1 :
1I
1Q
1N
#440
0'
0G
#441
1&
1F
b101 =
b0 ;
#445
1'
1G
b1000 Y
b1100 ]
0)
b0 +
b11 >
0I
0Q
0N
#448
0&
0F
#450
0'
0G
#455
1&
1'
1F
1G
1*
b1 ;
1J
b1100 _
#460
0'
0G
#462
0&
0F
#465
1'
1G
#469
1&
1F
b1101 W
b101 X
b111 \
0*
b100 ?
06
15
14
02
01
0J
#470
0'
0G
#475
1'
1G
b1000 <
b0 :
b111 ^
#476
0&
0F
#480
0'
0G
#483
1&
1F
#485
1'
1G
1)
b1 +
b1 :
1I
1R
#490
0&
0'
0F
0G
#495
1'
1G
b1001 Y
b1101 ]
0)
b0 +
b1010 >
0I
0R
#497
1&
1F
b1101 _
#500
0'
0G
#504
0&
0F
#505
1'
1G
#510
0'
0G
#511
1&
1F
#515
1'
1G
#518
0&
0F
#520
0'
0G
#525
1&
1'
1F
1G
b110 =
b0 ;
#530
0'
0G
#532
0&
0F
#535
1'
1G
#539
1&
1F
1*
b1 ;
1J
#540
0'
0G
#545
1'
1G
#546
0&
0F
#550
0'
0G
#553
1&
1F
b10001101 W
b110 X
b101 \
0*
10
0J
#555
1'
1G
b101 ^
#560
0&
0'
0F
0G
#565
1'
1G
#567
1&
1F
#570
0'
0G
#574
0&
0F
#575
1'
1G
#580
0'
0G
#581
1&
1F
#585
1'
1G
#588
0&
0F
#590
0'
0G
#595
1&
1'
1F
1G
b1001 <
b0 :
#600
0'
0G
#602
0&
0F
#605
1'
1G
1)
b1101 +
b1 :
1I
1R
1P
1O
#609
1&
1F
b111 =
b0 ;
#610
0'
0G
#615
1'
1G
b1010 Y
b1111 ]
0)
b0 +
b11 >
0I
0R
0P
0O
#616
0&
0F
#620
0'
0G
#623
1&
1F
1*
b1 ;
1J
b1111 _
#625
1'
1G
#630
0&
0'
0F
0G
#635
1'
1G
#637
1&
1F
b1100101 W
b111 X
b100 \
0*
b1001 ?
04
12
11
00
0J
#640
0'
0G
#644
0&
0F
#645
1'
1G
b1010 <
b0 :
b100 ^
#650
0'
0G
#651
1&
1F
#655
1'
1G
1)
b1110110 +
b1 :
1I
1Q
1P
1N
1M
1L
#658
0&
0F
#660
0'
0G
#665
1&
1'
1F
1G
b1011 Y
b1110 ]
0)
b0 +
b111 >
0I
0Q
0P
0N
0M
0L
b1110 _
#670
0'
0G
#672
0&
0F
#675
1'
1G
#679
1&
1F
#680
0'
0G
#685
1'
1G
#686
0&
0F
#690
0'
0G
#693
1&
1F
#695
1'
1G
#700
0&
0'
0F
0G
#705
1'
1G
#707
1&
1F
#710
0'
0G
#714
0&
0F
#715
1'
1G
#720
0'
0G
#721
1&
1F
#725
1'
1G
#728
0&
0F
#730
0'
0G
#735
1&
1'
1F
1G
b1011 <
b0 :
#740
0'
0G
#742
0&
0F
#745
1'
1G
1)
b111101 +
b1 :
1I
1R
1P
1O
1N
1M
#749
1&
1F
#750
0'
0G
#755
1'
1G
b1100 Y
b1010 ]
0)
b0 +
b110 >
0I
0R
0P
0O
0N
0M
#756
0&
0F
#760
0'
0G
#763
1&
1F
b1000 =
b0 ;
b1010 _
#765
1'
1G
#770
0&
0'
0F
0G
#775
1'
1G
#777
1&
1F
1*
b1 ;
1J
#780
0'
0G
#784
0&
0F
#785
1'
1G
#790
0'
0G
#791
1&
1F
b10010 W
b1000 X
b1100 \
0*
b1 ?
07
16
05
13
02
01
0J
#795
1'
1G
b1100 ^
#798
0&
0F
#800
0'
0G
#805
1&
1'
1F
1G
b1001 =
b0 ;
#810
0'
0G
#812
0&
0F
#815
1'
1G
b1100 <
b0 :
#819
1&
1F
1*
b1 ;
1J
#820
0'
0G
#825
1'
1G
1)
b11101101 +
b1 :
1I
1R
1P
1O
1M
1L
1K
#826
0&
0F
#830
0'
0G
#833
1&
1F
b1 W
b1001 X
b1101 \
0*
b1010 ?
17
06
03
0J
#835
1'
1G
b1101 Y
b1011 ]
0)
b0 +
b1000 >
0I
0R
0P
0O
0M
0L
0K
b1101 ^
#840
0&
0'
0F
0G
#845
1'
1G
#847
1&
1F
b1011 _
#850
0'
0G
#854
0&
0F
#855
1'
1G
#860
0'
0G
#861
1&
1F
#865
1'
1G
#868
0&
0F
#870
0'
0G
#875
1&
1'
1F
1G
#880
0'
0G
#882
0&
0F
#885
1'
1G
#889
1&
1F
#890
0'
0G
#895
1'
1G
#896
0&
0F
#900
0'
0G
#903
1&
1F
#905
1'
1G
#910
0&
0'
0F
0G
#915
1'
1G
b1101 <
b0 :
#917
1&
1F
#920
0'
0G
#924
0&
0F
#925
1'
1G
1)
b10001100 +
b1 :
1I
1P
1O
1K
#930
0'
0G
#931
1&
1F
#935
1'
1G
b1110 Y
b1001 ]
0)
b0 +
b101 >
0I
0P
0O
0K
#938
0&
0F
#940
0'
0G
#945
1&
1'
1F
1G
b1001 _
#950
0'
0G
#952
0&
0F
#955
1'
1G
#959
1&
1F
#960
0'
0G
#965
1'
1G
#966
0&
0F
#970
0'
0G
#973
1&
1F
b1010 =
b0 ;
#975
1'
1G
#980
0&
0'
0F
0G
#985
1'
1G
b1110 <
b0 :
#987
1&
1F
1*
b1 ;
1J
#990
0'
0G
#994
0&
0F
#995
1'
1G
1)
b11111001 +
b1 :
1I
1R
1O
1N
1M
1L
1K
#1000
0'
0G
#1001
1&
1F
b1101 W
b1010 X
b1111 \
0*
b1001 ?
15
14
0J
#1005
1'
1G
b1111 Y
b1000 ]
0)
b0 +
b1 >
0I
0R
0O
0N
0M
0L
0K
b1111 ^
#1008
0&
0F
#1010
0'
0G
#1015
1&
1'
1F
1G
b1111 <
b0 :
b1000 _
#1020
0'
0G
#1022
0&
0F
#1025
1'
1G
1)
b11000110 +
b1 :
1I
1Q
1P
1L
1K
#1029
1&
1F
#1030
0'
0G
#1035
1'
1G
1Z
b0 Y
b0 ]
0)
b0 +
b111 >
0I
0Q
0P
0L
0K
#1036
0&
0F
#1040
0'
0G
#1043
1&
1F
b0 _
1`
#1045
1'
1G
#1050
0&
0'
0F
0G
#1055
1'
1G
#1057
1&
1F
#1060
0'
0G
#1064
0&
0F
#1065
1'
1G
#1070
0'
0G
#1071
1&
1F
#1075
1'
1G
#1078
0&
0F
#1080
0'
0G
#1085
1&
1'
1F
1G
#1090
0'
0G
#1092
0&
0F
#1095
1'
1G
#1099
1&
1F
#1100
0'
0G
#1105
1'
1G
b10000 <
b0 :
#1106
0&
0F
#1110
0'
0G
#1113
1&
1F
#1115
1'
1G
1)
b11000101 +
b1 :
1I
1R
1P
1L
1K
#1120
0&
0'
0F
0G
#1125
1'
1G
b1 Y
b1 ]
0)
b0 +
b11 >
0I
0R
0P
0L
0K
#1127
1&
1F
b1011 =
b0 ;
b1 _
#1130
0'
0G
#1134
0&
0F
#1135
1'
1G
#1140
0'
0G
#1141
1&
1F
1*
b1 ;
1J
#1145
1'
1G
#1148
0&
0F
#1150
0'
0G
#1155
1&
1'
1F
1G
b1110110 W
b1011 X
b1110 \
0*
b11 ?
b10001 <
b0 :
07
16
04
13
12
11
0J
#1160
0'
0G
#1162
0&
0F
#1165
1'
1G
1)
b10101010 +
b1 :
1I
1Q
1O
1M
1K
b1110 ^
#1169
1&
1F
#1170
0'
0G
#1175
1'
1G
b10 Y
b11 ]
0)
b0 +
b1000 >
0I
0Q
0O
0M
0K
#1176
0&
0F
#1180
0'
0G
#1183
1&
1F
b11 _
#1185
1'
1G
#1190
0&
0'
0F
0G
#1195
1'
1G
#1197
1&
1F
b1100 =
b0 ;
#1200
0'
0G
#1204
0&
0F
#1205
1'
1G
#1210
0'
0G
#1211
1&
1F
1*
b1 ;
1J
#1215
1'
1G
#1218
0&
0F
#1220
0'
0G
#1225
1&
1'
1F
1G
b111101 W
b1100 X
b1010 \
0*
b1000 ?
17
06
14
01
0J
#1230
0'
0G
#1232
0&
0F
#1235
1'
1G
b1010 ^
#1239
1&
1F
#1240
0'
0G
#1245
1'
1G
#1246
0&
0F
#1250
0'
0G
#1253
1&
1F
#1255
1'
1G
b10010 <
b0 :
#1260
0&
0'
0F
0G
#1265
1'
1G
1)
b11100101 +
b1 :
1I
1R
1P
1M
1L
1K
#1267
1&
1F
#1270
0'
0G
#1274
0&
0F
#1275
1'
1G
b11 Y
b10 ]
0)
b0 +
b10 >
0I
0R
0P
0M
0L
0K
#1280
0'
0G
#1281
1&
1F
b10 _
#1285
1'
1G
#1288
0&
0F
#1290
0'
0G
#1295
1&
1'
1F
1G
b10011 <
b0 :
#1300
0'
0G
#1302
0&
0F
#1305
1'
1G
1)
b1110111 +
b1 :
1I
1R
1Q
1P
1N
1M
1L
#1309
1&
1F
#1310
0'
0G
#1315
1'
1G
b100 Y
b110 ]
0)
b0 +
b1001 >
0I
0R
0Q
0P
0N
0M
0L
#1316
0&
0F
#1320
0'
0G
#1323
1&
1F
b110 _
#1325
1'
1G
#1330
0&
0'
0F
0G
#1335
1'
1G
#1337
1&
1F
b1101 =
b0 ;
#1340
0'
0G
#1344
0&
0F
#1345
1'
1G
#1350
0'
0G
#1351
1&
1F
1*
b1 ;
1J
#1355
1'
1G
#1358
0&
0F
#1360
0'
0G
#1365
1&
1'
1F
1G
b11101101 W
b1101 X
b1011 \
0*
b100 ?
03
11
10
0J
#1370
0'
0G
#1372
0&
0F
#1375
1'
1G
b1011 ^
#1379
1&
1F
#1380
0'
0G
#1385
1'
1G
#1386
0&
0F
#1390
0'
0G
#1393
1&
1F
#1395
1'
1G
#1400
0&
0'
0F
0G
#1405
1'
1G
b10100 <
b0 :
#1407
1&
1F
#1410
0'
0G
#1414
0&
0F
#1415
1'
1G
1)
b10010 +
b1 :
1I
1Q
1N
#1420
0'
0G
#1421
1&
1F
b1110 =
b0 ;
#1425
1'
1G
b101 Y
b111 ]
0)
b0 +
0I
0Q
0N
#1428
0&
0F
#1430
0'
0G
#1435
1&
1'
1F
1G
1*
b1 ;
1J
b111 _
#1440
0'
0G
#1442
0&
0F
#1445
1'
1G
#1449
1&
1F
b10001100 W
b1110 X
b1001 \
0*
07
02
01
0J
#1450
0'
0G
#1455
1'
1G
b1001 ^
#1456
0&
0F
#1460
0'
0G
#1463
1&
1F
#1465
1'
1G
#1470
0&
0'
0F
0G
#1475
1'
1G
#1477
1&
1F
#1480
0'
0G
#1484
0&
0F
#1485
1'
1G
#1490
0'
0G
#1491
1&
1F
#1495
1'
1G
#1498
0&
0F
#1500
0'
0G
#1505
1&
1'
1F
1G
b1111 =
b0 ;
#1510
0'
0G
#1512
0&
0F
#1515
1'
1G
b10101 <
b0 :
#1519
1&
1F
1*
b1 ;
1J
#1520
0'
0G
#1525
1'
1G
1)
b10001111 +
b1 :
1I
1R
1Q
1P
1O
1K
#1526
0&
0F
#1530
0'
0G
#1533
1&
1F
b11111001 W
b1111 X
b1000 \
0*
b101 ?
17
05
13
12
11
0J
#1535
1'
1G
b110 Y
b101 ]
0)
b0 +
b1 >
0I
0R
0Q
0P
0O
0K
b1000 ^
#1540
0&
0'
0F
0G
#1545
1'
1G
b10110 <
b0 :
#1547
1&
1F
b101 _
#1550
0'
0G
#1554
0&
0F
#1555
1'
1G
1)
b11110010 +
b1 :
1I
1Q
1N
1M
1L
1K
#1560
0'
0G
#1561
1&
1F
#1565
1'
1G
b111 Y
b100 ]
0)
b0 +
b100 >
0I
0Q
0N
0M
0L
0K
#1568
0&
0F
#1570
0'
0G
#1575
1&
1'
1F
1G
b100 _
#1580
0'
0G
#1582
0&
0F
#1585
1'
1G
#1589
1&
1F
#1590
0'
0G
#1595
1'
1G
#1596
0&
0F
#1600
0'
0G
#1603
1&
1F
b10000 =
b0 ;
#1605
1'
1G
b10111 <
b0 :
#1610
0&
0'
0F
0G
#1615
1'
1G
1)
b11001110 +
b1 :
1I
1Q
1P
1O
1L
1K
#1617
1&
1F
1*
b1 ;
1J
#1620
0'
0G
#1624
0&
0F
#1625
1'
1G
b1000 Y
b1100 ]
0)
b0 +
b1 >
0I
0Q
0P
0O
0L
0K
#1630
0'
0G
#1631
1&
1F
b11000110 W
1[
b0 X
b0 \
0*
b110 ?
07
16
15
04
03
02
0J
b1100 _
#1635
1'
1G
b11000 <
b0 :
b0 ^
1a
#1638
0&
0F
#1640
0'
0G
#1645
1&
1'
1F
1G
1)
b11101000 +
b1 :
1I
1O
1M
1L
1K
#1650
0'
0G
#1652
0&
0F
#1655
1'
1G
b1001 Y
b1101 ]
0)
b0 +
b111 >
0I
0O
0M
0L
0K
#1659
1&
1F
b1101 _
#1660
0'
0G
#1665
1'
1G
#1666
0&
0F
#1670
0'
0G
#1673
1&
1F
#1675
1'
1G
#1680
0&
0'
0F
0G
#1685
1'
1G
#1687
1&
1F
#1690
0'
0G
#1694
0&
0F
#1695
1'
1G
#1700
0'
0G
#1701
1&
1F
#1705
1'
1G
#1708
0&
0F
#1710
0'
0G
#1715
1&
1'
1F
1G
b10001 =
b0 ;
#1720
0'
0G
#1722
0&
0F
#1725
1'
1G
b11001 <
b0 :
#1729
1&
1F
1*
b1 ;
1J
#1730
0'
0G
#1735
1'
1G
1)
b11000101 +
b1 :
1I
1R
1P
1L
1K
#1736
0&
0F
#1740
0'
0G
#1743
1&
1F
b11000101 W
b1 X
b1 \
0*
b10 ?
17
06
0J
#1745
1'
1G
b1010 Y
b1111 ]
0)
b0 +
b1000 >
0I
0R
0P
0L
0K
b1 ^
#1750
0&
0'
0F
0G
#1755
1'
1G
#1757
1&
1F
b1111 _
#1760
0'
0G
#1764
0&
0F
#1765
1'
1G
#1770
0'
0G
#1771
1&
1F
b10010 =
b0 ;
#1775
1'
1G
#1778
0&
0F
#1780
0'
0G
#1785
1&
1'
1F
1G
1*
b1 ;
1J
#1790
0'
0G
#1792
0&
0F
#1795
1'
1G
#1799
1&
1F
b10101010 W
b10 X
b11 \
0*
b1 ?
07
16
05
14
12
01
0J
#1800
0'
0G
#1805
1'
1G
b11 ^
#1806
0&
0F
#1810
0'
0G
#1813
1&
1F
b10011 =
b0 ;
#1815
1'
1G
#1820
0&
0'
0F
0G
#1825
1'
1G
b11010 <
b0 :
#1827
1&
1F
1*
b1 ;
1J
#1830
0'
0G
#1834
0&
0F
#1835
1'
1G
1)
b1011100 +
b1 :
1I
1P
1O
1N
1L
#1840
0'
0G
#1841
1&
1F
b11100101 W
b11 X
b10 \
0*
b1010 ?
17
06
15
04
11
0J
#1845
1'
1G
b1011 Y
b1110 ]
0)
b0 +
b111 >
0I
0P
0O
0N
0L
b10 ^
#1848
0&
0F
#1850
0'
0G
#1855
1&
1'
1F
1G
b1110 _
#1860
0'
0G
#1862
0&
0F
#1865
1'
1G
#1869
1&
1F
#1870
0'
0G
#1875
1'
1G
#1876
0&
0F
#1880
0'
0G
#1883
1&
1F
#1885
1'
1G
#1890
0&
0'
0F
0G
#1895
1'
1G
#1897
1&
1F
#1900
0'
0G
#1904
0&
0F
#1905
1'
1G
#1910
0'
0G
#1911
1&
1F
#1915
1'
1G
b11011 <
b0 :
#1918
0&
0F
#1920
0'
0G
#1925
1&
1'
1F
1G
1)
b10111101 +
b1 :
1I
1R
1P
1O
1N
1M
1K
#1930
0'
0G
#1932
0&
0F
#1935
1'
1G
b1100 Y
b1010 ]
0)
b0 +
b110 >
0I
0R
0P
0O
0N
0M
0K
#1939
1&
1F
b1010 _
#1940
0'
0G
#1945
1'
1G
#1946
0&
0F
#1950
0'
0G
#1953
1&
1F
#1955
1'
1G
#1960
0&
0'
0F
0G
#1965
1'
1G
#1967
1&
1F
#1970
0'
0G
#1974
0&
0F
#1975
1'
1G
#1980
0'
0G
#1981
1&
1F
b10100 =
b0 ;
#1985
1'
1G
#1988
0&
0F
#1990
0'
0G
#1995
1&
1'
1F
1G
1*
b1 ;
b11100 <
b0 :
1J
#2000
0'
0G
#2002
0&
0F
#2005
1'
1G
1)
b101101 +
b1 :
1I
1R
1P
1O
1M
#2009
1&
1F
b1110111 W
b100 X
b110 \
0*
b100 ?
16
13
00
0J
#2010
0'
0G
#2015
1'
1G
b1101 Y
b1011 ]
0)
b0 +
0I
0R
0P
0O
0M
b110 ^
#2016
0&
0F
#2020
0'
0G
#2023
1&
1F
b1011 _
#2025
1'
1G
#2030
0&
0'
0F
0G
#2035
1'
1G
#2037
1&
1F
#2040
0'
0G
#2044
0&
0F
#2045
1'
1G
#2050
0'
0G
#2051
1&
1F
#2055
1'
1G
#2058
0&
0F
#2060
0'
0G
#2065
1&
1'
1F
1G
b10101 =
b0 ;
#2070
0'
0G
#2072
0&
0F
#2075
1'
1G
b11101 <
b0 :
#2079
1&
1F
1*
b1 ;
1J
#2080
0'
0G
#2085
1'
1G
1)
b1100101 +
b1 :
1I
1R
1P
1M
1L
#2086
0&
0F
#2090
0'
0G
#2093
1&
1F
b10010 W
b101 X
b111 \
0*
b1000 ?
07
05
02
01
0J
#2095
1'
1G
b1110 Y
b1001 ]
0)
b0 +
b101 >
0I
0R
0P
0M
0L
b111 ^
#2100
0&
0'
0F
0G
#2105
1'
1G
#2107
1&
1F
b1001 _
#2110
0'
0G
#2114
0&
0F
#2115
1'
1G
#2120
0'
0G
#2121
1&
1F
#2125
1'
1G
#2128
0&
0F
#2130
0'
0G
#2135
1&
1'
1F
1G
#2140
0'
0G
#2142
0&
0F
#2145
1'
1G
b11110 <
b0 :
#2149
1&
1F
#2150
0'
0G
#2155
1'
1G
1)
b1100011 +
b1 :
1I
1R
1Q
1M
1L
#2156
0&
0F
#2160
0'
0G
#2163
1&
1F
#2165
1'
1G
b1111 Y
b1000 ]
0)
b0 +
b111 >
0I
0R
0Q
0M
0L
#2170
0&
0'
0F
0G
#2175
1'
1G
#2177
1&
1F
b1000 _
#2180
0'
0G
#2184
0&
0F
#2185
1'
1G
#2190
0'
0G
#2191
1&
1F
#2195
1'
1G
#2198
0&
0F
#2200
0'
0G
#2205
1&
1'
1F
1G
b10110 =
b0 ;
#2210
0'
0G
#2212
0&
0F
#2215
1'
1G
#2219
1&
1F
1*
b1 ;
1J
#2220
0'
0G
#2225
1'
1G
#2226
0&
0F
#2230
0'
0G
#2233
1&
1F
b10001111 W
b110 X
b101 \
0*
b1 ?
17
15
14
03
10
0J
#2235
1'
1G
b11111 <
b0 :
b101 ^
#2240
0&
0'
0F
0G
#2245
1'
1G
1)
b1010 +
b1 :
1I
1Q
1O
#2247
1&
1F
b10111 =
b0 ;
#2250
0'
0G
#2254
0&
0F
#2255
1'
1G
0Z
b0 Y
b0 ]
0)
b0 +
b101 >
0I
0Q
0O
#2260
0'
0G
#2261
1&
1F
1*
b1 ;
1J
b0 _
0`
#2265
1'
1G
#2268
0&
0F
#2270
0'
0G
#2275
1&
1'
1F
1G
b11110010 W
b111 X
b100 \
0*
07
05
04
13
12
11
0J
#2280
0'
0G
#2282
0&
0F
#2285
1'
1G
b100 ^
#2289
1&
1F
b11000 =
b0 ;
#2290
0'
0G
#2295
1'
1G
#2296
0&
0F
#2300
0'
0G
#2303
1&
1F
1*
b1 ;
1J
#2305
1'
1G
b100000 <
b0 :
#2310
0&
0'
0F
0G
#2315
1'
1G
1)
b10000000 +
b1 :
1I
1K
#2317
1&
1F
b11001110 W
b1000 X
b1100 \
0*
b1010 ?
15
14
03
02
0J
#2320
0'
0G
#2324
0&
0F
#2325
1'
1G
b1 Y
b1 ]
0)
b0 +
b110 >
0I
0K
b1100 ^
#2330
0'
0G
#2331
1&
1F
b1 _
#2335
1'
1G
#2338
0&
0F
#2340
0'
0G
#2345
1&
1'
1F
1G
#2350
0'
0G
#2352
0&
0F
#2355
1'
1G
#2359
1&
1F
#2360
0'
0G
#2365
1'
1G
#2366
0&
0F
#2370
0'
0G
#2373
1&
1F
#2375
1'
1G
#2380
0&
0'
0F
0G
#2385
1'
1G
b100001 <
b0 :
#2387
1&
1F
#2390
0'
0G
#2394
0&
0F
#2395
1'
1G
1)
b100000 +
b1 :
1I
1M
#2400
0'
0G
#2401
1&
1F
#2405
1'
1G
b10 Y
b11 ]
0)
b0 +
b1001 >
0I
0M
#2408
0&
0F
#2410
0'
0G
#2415
1&
1'
1F
1G
b11 _
#2420
0'
0G
#2422
0&
0F
#2425
1'
1G
#2429
1&
1F
#2430
0'
0G
#2435
1'
1G
#2436
0&
0F
#2440
0'
0G
#2443
1&
1F
#2445
1'
1G
#2450
0&
0'
0F
0G
#2455
1'
1G
#2457
1&
1F
b11001 =
b0 ;
#2460
0'
0G
#2464
0&
0F
#2465
1'
1G
#2470
0'
0G
#2471
1&
1F
1*
b1 ;
1J
#2475
1'
1G
#2478
0&
0F
#2480
0'
0G
#2485
1&
1'
1F
1G
b11101000 W
b1001 X
b1101 \
0*
b100 ?
06
05
12
0J
#2490
0'
0G
#2492
0&
0F
#2495
1'
1G
b100010 <
b0 :
b1101 ^
#2499
1&
1F
#2500
0'
0G
#2505
1'
1G
1)
b10101010 +
b1 :
1I
1Q
1O
1M
1K
#2506
0&
0F
#2510
0'
0G
#2513
1&
1F
#2515
1'
1G
b11 Y
b10 ]
0)
b0 +
b100 >
0I
0Q
0O
0M
0K
#2520
0&
0'
0F
0G
#2525
1'
1G
#2527
1&
1F
b10 _
#2530
0'
0G
#2534
0&
0F
#2535
1'
1G
#2540
0'
0G
#2541
1&
1F
b11010 =
b0 ;
#2545
1'
1G
#2548
0&
0F
#2550
0'
0G
#2555
1&
1'
1F
1G
1*
b1 ;
b100011 <
b0 :
1J
#2560
0'
0G
#2562
0&
0F
#2565
1'
1G
1)
b10011101 +
b1 :
1I
1R
1P
1O
1N
1K
