Submits/RTL_Design_and_Integration_Material/Ibrahim_Verilog_Codes/13_Sequential_Multiplier_Constructionist/transcript
# //  Questa Sim-64
# //  Version 10.6c win64 Jul 26 2017
# //
# //  Copyright 1991-2017 Mentor Graphics Corporation
# //  All Rights Reserved.
# //
# //  QuestaSim and its associated documentation contain trade
# //  secrets and commercial or financial information that are the property of
# //  Mentor Graphics Corporation and are privileged, confidential,
# //  and exempt from disclosure under the Freedom of Information Act,
# //  5 U.S.C. Section 552. Furthermore, this information
# //  is prohibited from disclosure under the Trade Secrets Act,
# //  18 U.S.C. Section 1905.
# //
do ../run.do
# QuestaSim-64 vlog 10.6c Compiler 2017.07 Jul 26 2017
# Start time: 17:06:38 on May 06,2023
# vlog -reportprogress 300 tb.v 
# -- Compiling module tb
# 
# Top level modules:
# 	tb
# End time: 17:06:38 on May 06,2023, Elapsed time: 0:00:00
# Errors: 0, Warnings: 0
# vsim -novopt tb 
# Start time: 17:06:39 on May 06,2023
# ** Warning: (vsim-8891) All optimizations are turned off because the -novopt switch is in effect. This will cause your simulation to run very slowly. If you are using this switch to preserve visibility for Debug or PLI features please see the User's Manual section on Preserving Object Visibility with vopt.
# Refreshing C:/Users/ibrah/OneDrive/Documents/Github/Ibrahim-List/Submits/RTL_Design_and_Integration_Material/Ibrahim_Verilog_Codes/13_Sequential_Multiplier_Constructionist/work.tb
# Loading work.tb
# ** Error: (vsim-3033) tb.v(24): Instantiation of 'seq_mult' failed. The design unit was not found.
#    Time: 0 ns  Iteration: 0  Instance: /tb File: tb.v
#         Searched libraries:
#             C:/Users/ibrah/OneDrive/Documents/Github/Ibrahim-List/Submits/RTL_Design_and_Integration_Material/Ibrahim_Verilog_Codes/13_Sequential_Multiplier_Constructionist/work
# Error loading design
# Error: Error loading design
#        Pausing macro execution
# MACRO ./../run.do PAUSED at line 6
do ../run.do
# QuestaSim-64 vlog 10.6c Compiler 2017.07 Jul 26 2017
# Start time: 17:06:56 on May 06,2023
# vlog -reportprogress 300 tb.v 
# -- Compiling module seq_mult
# -- Compiling module tb
# 
# Top level modules:
# 	tb
# End time: 17:06:56 on May 06,2023, Elapsed time: 0:00:00
# Errors: 0, Warnings: 0
# vsim -novopt tb 
# Start time: 17:06:39 on May 06,2023
# ** Warning: (vsim-8891) All optimizations are turned off because the -novopt switch is in effect. This will cause your simulation to run very slowly. If you are using this switch to preserve visibility for Debug or PLI features please see the User's Manual section on Preserving Object Visibility with vopt.
# Refreshing C:/Users/ibrah/OneDrive/Documents/Github/Ibrahim-List/Submits/RTL_Design_and_Integration_Material/Ibrahim_Verilog_Codes/13_Sequential_Multiplier_Constructionist/work.tb
# Loading work.tb
# Refreshing C:/Users/ibrah/OneDrive/Documents/Github/Ibrahim-List/Submits/RTL_Design_and_Integration_Material/Ibrahim_Verilog_Codes/13_Sequential_Multiplier_Constructionist/work.seq_mult
# Loading work.seq_mult
# time=0, a= x, b=x, ab_valid=x, rst=0, z=  0, z_valid=0, ab_ready=1
# time=5, a= x, b=x, ab_valid=x, rst=1, z=  x, z_valid=0, ab_ready=1
# time=11, a= 1, b=1, ab_valid=0, rst=1, z=  x, z_valid=0, ab_ready=1
# time=13, a=13, b=1, ab_valid=1, rst=1, z=  x, z_valid=0, ab_ready=1
# time=15, a=18, b=1, ab_valid=1, rst=1, z=  x, z_valid=0, ab_ready=1
# time=17, a=22, b=1, ab_valid=1, rst=1, z=  0, z_valid=0, ab_ready=0
# time=19, a=12, b=1, ab_valid=1, rst=1, z= 18, z_valid=0, ab_ready=0
# time=21, a= 5, b=2, ab_valid=0, rst=1, z= 18, z_valid=1, ab_ready=1
# time=23, a=23, b=2, ab_valid=1, rst=1, z=  0, z_valid=0, ab_ready=0
# time=25, a=18, b=2, ab_valid=1, rst=1, z=  0, z_valid=0, ab_ready=0
# time=27, a= 5, b=0, ab_valid=0, rst=1, z= 10, z_valid=0, ab_ready=0
# time=29, a=13, b=1, ab_valid=1, rst=1, z= 10, z_valid=1, ab_ready=1
# time=31, a=10, b=0, ab_valid=1, rst=1, z= 10, z_valid=0, ab_ready=1
# time=33, a=10, b=1, ab_valid=0, rst=1, z=  0, z_valid=0, ab_ready=0
# time=35, a=19, b=1, ab_valid=0, rst=1, z=  0, z_valid=1, ab_ready=1
# time=37, a=11, b=1, ab_valid=1, rst=1, z=  0, z_valid=0, ab_ready=1
# time=39, a=14, b=1, ab_valid=0, rst=1, z=  0, z_valid=0, ab_ready=1
# time=41, a= 3, b=2, ab_valid=1, rst=1, z=  0, z_valid=0, ab_ready=0
# time=43, a=28, b=2, ab_valid=0, rst=1, z= 14, z_valid=0, ab_ready=0
# time=45, a= 1, b=0, ab_valid=0, rst=1, z= 14, z_valid=1, ab_ready=1
# time=47, a= 9, b=3, ab_valid=0, rst=1, z= 14, z_valid=0, ab_ready=1
# time=49, a= 6, b=2, ab_valid=0, rst=1, z= 14, z_valid=0, ab_ready=1
# time=51, a=10, b=3, ab_valid=0, rst=1, z= 14, z_valid=0, ab_ready=1
# time=53, a= 5, b=3, ab_valid=1, rst=1, z= 14, z_valid=0, ab_ready=1
# time=55, a=26, b=2, ab_valid=1, rst=1, z= 14, z_valid=0, ab_ready=1
# time=57, a=17, b=1, ab_valid=1, rst=1, z=  0, z_valid=0, ab_ready=0
# time=59, a=12, b=3, ab_valid=0, rst=1, z=  0, z_valid=0, ab_ready=0
# time=61, a=24, b=3, ab_valid=1, rst=1, z= 52, z_valid=0, ab_ready=0
# time=63, a=28, b=3, ab_valid=1, rst=1, z= 52, z_valid=1, ab_ready=1
# time=65, a= 9, b=0, ab_valid=1, rst=1, z=  0, z_valid=0, ab_ready=0
# time=67, a=17, b=2, ab_valid=1, rst=1, z= 28, z_valid=0, ab_ready=0
# time=69, a= 2, b=0, ab_valid=0, rst=1, z= 84, z_valid=0, ab_ready=0
# time=71, a=29, b=2, ab_valid=1, rst=1, z= 84, z_valid=1, ab_ready=1
# time=73, a=13, b=1, ab_valid=0, rst=1, z= 84, z_valid=0, ab_ready=1
# time=75, a=19, b=1, ab_valid=1, rst=1, z=  0, z_valid=0, ab_ready=0
# time=77, a=27, b=1, ab_valid=0, rst=1, z= 13, z_valid=0, ab_ready=0
# time=79, a=10, b=0, ab_valid=1, rst=1, z= 13, z_valid=1, ab_ready=1
# time=81, a=14, b=0, ab_valid=0, rst=1, z= 13, z_valid=0, ab_ready=1
# time=83, a= 6, b=3, ab_valid=0, rst=1, z=  0, z_valid=0, ab_ready=0
# time=85, a=15, b=3, ab_valid=1, rst=1, z=  0, z_valid=1, ab_ready=1
# time=87, a= 4, b=3, ab_valid=1, rst=1, z=  0, z_valid=0, ab_ready=1
# time=89, a= 6, b=2, ab_valid=1, rst=1, z=  0, z_valid=0, ab_ready=0
# time=91, a=13, b=2, ab_valid=1, rst=1, z=  4, z_valid=0, ab_ready=0
# time=93, a=21, b=3, ab_valid=1, rst=1, z= 12, z_valid=0, ab_ready=0
# time=95, a= 4, b=0, ab_valid=1, rst=1, z= 12, z_valid=1, ab_ready=1
# time=97, a=11, b=2, ab_valid=0, rst=1, z=  0, z_valid=0, ab_ready=0
# time=99, a=26, b=1, ab_valid=0, rst=1, z=  0, z_valid=1, ab_ready=1
# time=101, a=22, b=2, ab_valid=1, rst=1, z=  0, z_valid=0, ab_ready=1
# time=103, a=10, b=2, ab_valid=1, rst=1, z=  0, z_valid=0, ab_ready=1
# time=105, a=25, b=0, ab_valid=0, rst=1, z=  0, z_valid=0, ab_ready=0
# time=107, a=19, b=0, ab_valid=0, rst=1, z=  0, z_valid=0, ab_ready=0
# time=109, a=27, b=1, ab_valid=1, rst=1, z= 20, z_valid=0, ab_ready=0
# time=111, a=27, b=1, ab_valid=0, rst=1, z= 20, z_valid=1, ab_ready=1
# time=113, a=27, b=1, ab_valid=0, rst=1, z=  0, z_valid=0, ab_ready=0
# time=115, a=27, b=1, ab_valid=0, rst=1, z= 27, z_valid=0, ab_ready=0
# time=117, a=27, b=1, ab_valid=0, rst=1, z= 27, z_valid=1, ab_ready=1
# time=119, a=27, b=1, ab_valid=0, rst=1, z= 27, z_valid=0, ab_ready=1
# ** Note: $finish    : tb.v(51)
#    Time: 211 ns  Iteration: 0  Instance: /tb
# 1
# Break in Module tb at tb.v line 51
do ../run.do
# QuestaSim-64 vlog 10.6c Compiler 2017.07 Jul 26 2017
# Start time: 17:07:37 on May 06,2023
# vlog -reportprogress 300 tb.v 
# -- Compiling module seq_mult
# -- Compiling module tb
# 
# Top level modules:
# 	tb
# End time: 17:07:37 on May 06,2023, Elapsed time: 0:00:00
# Errors: 0, Warnings: 0
# End time: 17:07:38 on May 06,2023, Elapsed time: 0:00:59
# Errors: 1, Warnings: 2
# vsim -novopt tb 
# Start time: 17:07:38 on May 06,2023
# ** Warning: (vsim-8891) All optimizations are turned off because the -novopt switch is in effect. This will cause your simulation to run very slowly. If you are using this switch to preserve visibility for Debug or PLI features please see the User's Manual section on Preserving Object Visibility with vopt.
# Refreshing C:/Users/ibrah/OneDrive/Documents/Github/Ibrahim-List/Submits/RTL_Design_and_Integration_Material/Ibrahim_Verilog_Codes/13_Sequential_Multiplier_Constructionist/work.tb
# Loading work.tb
# Refreshing C:/Users/ibrah/OneDrive/Documents/Github/Ibrahim-List/Submits/RTL_Design_and_Integration_Material/Ibrahim_Verilog_Codes/13_Sequential_Multiplier_Constructionist/work.seq_mult
# Loading work.seq_mult
# ** Error: (vish-4014) No objects found matching '#'.
# Error in macro ./../run.do line 9
# (vish-4014) No objects found matching '#'.
#     while executing
# "add wave sim:/tb/* # /dut/*"
do ../run.do
# QuestaSim-64 vlog 10.6c Compiler 2017.07 Jul 26 2017
# Start time: 17:07:51 on May 06,2023
# vlog -reportprogress 300 tb.v 
# -- Compiling module seq_mult
# -- Compiling module tb
# 
# Top level modules:
# 	tb
# End time: 17:07:51 on May 06,2023, Elapsed time: 0:00:00
# Errors: 0, Warnings: 0
# End time: 17:07:52 on May 06,2023, Elapsed time: 0:00:14
# Errors: 3, Warnings: 1
# vsim -novopt tb 
# Start time: 17:07:52 on May 06,2023
# ** Warning: (vsim-8891) All optimizations are turned off because the -novopt switch is in effect. This will cause your simulation to run very slowly. If you are using this switch to preserve visibility for Debug or PLI features please see the User's Manual section on Preserving Object Visibility with vopt.
# Refreshing C:/Users/ibrah/OneDrive/Documents/Github/Ibrahim-List/Submits/RTL_Design_and_Integration_Material/Ibrahim_Verilog_Codes/13_Sequential_Multiplier_Constructionist/work.tb
# Loading work.tb
# Refreshing C:/Users/ibrah/OneDrive/Documents/Github/Ibrahim-List/Submits/RTL_Design_and_Integration_Material/Ibrahim_Verilog_Codes/13_Sequential_Multiplier_Constructionist/work.seq_mult
# Loading work.seq_mult
# ** Error: (vish-4014) No objects found matching '/tb'.
# (vish-4014) No objects found matching '#'.
# Error in macro ./../run.do line 9
# (vish-4014) No objects found matching '/tb'.
# (vish-4014) No objects found matching '#'.
#     while executing
# "add wave sim:/tb # /dut/*"
do ../run.do
# QuestaSim-64 vlog 10.6c Compiler 2017.07 Jul 26 2017
# Start time: 17:08:13 on May 06,2023
# vlog -reportprogress 300 tb.v 
# -- Compiling module seq_mult
# -- Compiling module tb
# 
# Top level modules:
# 	tb
# End time: 17:08:13 on May 06,2023, Elapsed time: 0:00:00
# Errors: 0, Warnings: 0
# End time: 17:08:14 on May 06,2023, Elapsed time: 0:00:22
# Errors: 3, Warnings: 1
# vsim -novopt tb 
# Start time: 17:08:14 on May 06,2023
# ** Warning: (vsim-8891) All optimizations are turned off because the -novopt switch is in effect. This will cause your simulation to run very slowly. If you are using this switch to preserve visibility for Debug or PLI features please see the User's Manual section on Preserving Object Visibility with vopt.
# Refreshing C:/Users/ibrah/OneDrive/Documents/Github/Ibrahim-List/Submits/RTL_Design_and_Integration_Material/Ibrahim_Verilog_Codes/13_Sequential_Multiplier_Constructionist/work.tb
# Loading work.tb
# Refreshing C:/Users/ibrah/OneDrive/Documents/Github/Ibrahim-List/Submits/RTL_Design_and_Integration_Material/Ibrahim_Verilog_Codes/13_Sequential_Multiplier_Constructionist/work.seq_mult
# Loading work.seq_mult
# time=0, a= x, b=x, ab_valid=x, rst=0, z=  0, z_valid=0, ab_ready=1
# time=5, a= x, b=x, ab_valid=x, rst=1, z=  x, z_valid=0, ab_ready=1
# time=11, a= 1, b=1, ab_valid=0, rst=1, z=  x, z_valid=0, ab_ready=1
# time=13, a=13, b=1, ab_valid=1, rst=1, z=  x, z_valid=0, ab_ready=1
# time=15, a=18, b=1, ab_valid=1, rst=1, z=  x, z_valid=0, ab_ready=1
# time=17, a=22, b=1, ab_valid=1, rst=1, z=  0, z_valid=0, ab_ready=0
# time=19, a=12, b=1, ab_valid=1, rst=1, z= 18, z_valid=0, ab_ready=0
# time=21, a= 5, b=2, ab_valid=0, rst=1, z= 18, z_valid=1, ab_ready=1
# time=23, a=23, b=2, ab_valid=1, rst=1, z=  0, z_valid=0, ab_ready=0
# time=25, a=18, b=2, ab_valid=1, rst=1, z=  0, z_valid=0, ab_ready=0
# time=27, a= 5, b=0, ab_valid=0, rst=1, z= 10, z_valid=0, ab_ready=0
# time=29, a=13, b=1, ab_valid=1, rst=1, z= 10, z_valid=1, ab_ready=1
# time=31, a=10, b=0, ab_valid=1, rst=1, z= 10, z_valid=0, ab_ready=1
# time=33, a=10, b=1, ab_valid=0, rst=1, z=  0, z_valid=0, ab_ready=0
# time=35, a=19, b=1, ab_valid=0, rst=1, z=  0, z_valid=1, ab_ready=1
# time=37, a=11, b=1, ab_valid=1, rst=1, z=  0, z_valid=0, ab_ready=1
# time=39, a=14, b=1, ab_valid=0, rst=1, z=  0, z_valid=0, ab_ready=1
# time=41, a= 3, b=2, ab_valid=1, rst=1, z=  0, z_valid=0, ab_ready=0
# time=43, a=28, b=2, ab_valid=0, rst=1, z= 14, z_valid=0, ab_ready=0
# time=45, a= 1, b=0, ab_valid=0, rst=1, z= 14, z_valid=1, ab_ready=1
# time=47, a= 9, b=3, ab_valid=0, rst=1, z= 14, z_valid=0, ab_ready=1
# time=49, a= 6, b=2, ab_valid=0, rst=1, z= 14, z_valid=0, ab_ready=1
# time=51, a=10, b=3, ab_valid=0, rst=1, z= 14, z_valid=0, ab_ready=1
# time=53, a= 5, b=3, ab_valid=1, rst=1, z= 14, z_valid=0, ab_ready=1
# time=55, a=26, b=2, ab_valid=1, rst=1, z= 14, z_valid=0, ab_ready=1
# time=57, a=17, b=1, ab_valid=1, rst=1, z=  0, z_valid=0, ab_ready=0
# time=59, a=12, b=3, ab_valid=0, rst=1, z=  0, z_valid=0, ab_ready=0
# time=61, a=24, b=3, ab_valid=1, rst=1, z= 52, z_valid=0, ab_ready=0
# time=63, a=28, b=3, ab_valid=1, rst=1, z= 52, z_valid=1, ab_ready=1
# time=65, a= 9, b=0, ab_valid=1, rst=1, z=  0, z_valid=0, ab_ready=0
# time=67, a=17, b=2, ab_valid=1, rst=1, z= 28, z_valid=0, ab_ready=0
# time=69, a= 2, b=0, ab_valid=0, rst=1, z= 84, z_valid=0, ab_ready=0
# time=71, a=29, b=2, ab_valid=1, rst=1, z= 84, z_valid=1, ab_ready=1
# time=73, a=13, b=1, ab_valid=0, rst=1, z= 84, z_valid=0, ab_ready=1
# time=75, a=19, b=1, ab_valid=1, rst=1, z=  0, z_valid=0, ab_ready=0
# time=77, a=27, b=1, ab_valid=0, rst=1, z= 13, z_valid=0, ab_ready=0
# time=79, a=10, b=0, ab_valid=1, rst=1, z= 13, z_valid=1, ab_ready=1
# time=81, a=14, b=0, ab_valid=0, rst=1, z= 13, z_valid=0, ab_ready=1
# time=83, a= 6, b=3, ab_valid=0, rst=1, z=  0, z_valid=0, ab_ready=0
# time=85, a=15, b=3, ab_valid=1, rst=1, z=  0, z_valid=1, ab_ready=1
# time=87, a= 4, b=3, ab_valid=1, rst=1, z=  0, z_valid=0, ab_ready=1
# time=89, a= 6, b=2, ab_valid=1, rst=1, z=  0, z_valid=0, ab_ready=0
# time=91, a=13, b=2, ab_valid=1, rst=1, z=  4, z_valid=0, ab_ready=0
# time=93, a=21, b=3, ab_valid=1, rst=1, z= 12, z_valid=0, ab_ready=0
# time=95, a= 4, b=0, ab_valid=1, rst=1, z= 12, z_valid=1, ab_ready=1
# time=97, a=11, b=2, ab_valid=0, rst=1, z=  0, z_valid=0, ab_ready=0
# time=99, a=26, b=1, ab_valid=0, rst=1, z=  0, z_valid=1, ab_ready=1
# time=101, a=22, b=2, ab_valid=1, rst=1, z=  0, z_valid=0, ab_ready=1
# time=103, a=10, b=2, ab_valid=1, rst=1, z=  0, z_valid=0, ab_ready=1
# time=105, a=25, b=0, ab_valid=0, rst=1, z=  0, z_valid=0, ab_ready=0
# time=107, a=19, b=0, ab_valid=0, rst=1, z=  0, z_valid=0, ab_ready=0
# time=109, a=27, b=1, ab_valid=1, rst=1, z= 20, z_valid=0, ab_ready=0
# time=111, a=27, b=1, ab_valid=0, rst=1, z= 20, z_valid=1, ab_ready=1
# time=113, a=27, b=1, ab_valid=0, rst=1, z=  0, z_valid=0, ab_ready=0
# time=115, a=27, b=1, ab_valid=0, rst=1, z= 27, z_valid=0, ab_ready=0
# time=117, a=27, b=1, ab_valid=0, rst=1, z= 27, z_valid=1, ab_ready=1
# time=119, a=27, b=1, ab_valid=0, rst=1, z= 27, z_valid=0, ab_ready=1
# ** Note: $finish    : tb.v(51)
#    Time: 211 ns  Iteration: 0  Instance: /tb
# 1
# Break in Module tb at tb.v line 51
do ../run.do
# QuestaSim-64 vlog 10.6c Compiler 2017.07 Jul 26 2017
# Start time: 17:08:58 on May 06,2023
# vlog -reportprogress 300 tb.v 
# -- Compiling module seq_mult
# -- Compiling module tb
# 
# Top level modules:
# 	tb
# End time: 17:08:58 on May 06,2023, Elapsed time: 0:00:00
# Errors: 0, Warnings: 0
# End time: 17:08:58 on May 06,2023, Elapsed time: 0:00:44
# Errors: 0, Warnings: 1
# vsim -novopt tb 
# Start time: 17:08:58 on May 06,2023
# ** Warning: (vsim-8891) All optimizations are turned off because the -novopt switch is in effect. This will cause your simulation to run very slowly. If you are using this switch to preserve visibility for Debug or PLI features please see the User's Manual section on Preserving Object Visibility with vopt.
# Refreshing C:/Users/ibrah/OneDrive/Documents/Github/Ibrahim-List/Submits/RTL_Design_and_Integration_Material/Ibrahim_Verilog_Codes/13_Sequential_Multiplier_Constructionist/work.tb
# Loading work.tb
# Refreshing C:/Users/ibrah/OneDrive/Documents/Github/Ibrahim-List/Submits/RTL_Design_and_Integration_Material/Ibrahim_Verilog_Codes/13_Sequential_Multiplier_Constructionist/work.seq_mult
# Loading work.seq_mult
# ** Error: (vish-4014) No objects found matching '/tb'.
# Error in macro ./../run.do line 10
# (vish-4014) No objects found matching '/tb'.
#     while executing
# "add wave sim:/tb"
do ../run.do
# QuestaSim-64 vlog 10.6c Compiler 2017.07 Jul 26 2017
# Start time: 17:09:12 on May 06,2023
# vlog -reportprogress 300 tb.v 
# -- Compiling module seq_mult
# -- Compiling module tb
# 
# Top level modules:
# 	tb
# End time: 17:09:12 on May 06,2023, Elapsed time: 0:00:00
# Errors: 0, Warnings: 0
# End time: 17:09:12 on May 06,2023, Elapsed time: 0:00:14
# Errors: 3, Warnings: 1
# vsim -novopt tb 
# Start time: 17:09:12 on May 06,2023
# ** Warning: (vsim-8891) All optimizations are turned off because the -novopt switch is in effect. This will cause your simulation to run very slowly. If you are using this switch to preserve visibility for Debug or PLI features please see the User's Manual section on Preserving Object Visibility with vopt.
# Refreshing C:/Users/ibrah/OneDrive/Documents/Github/Ibrahim-List/Submits/RTL_Design_and_Integration_Material/Ibrahim_Verilog_Codes/13_Sequential_Multiplier_Constructionist/work.tb
# Loading work.tb
# Refreshing C:/Users/ibrah/OneDrive/Documents/Github/Ibrahim-List/Submits/RTL_Design_and_Integration_Material/Ibrahim_Verilog_Codes/13_Sequential_Multiplier_Constructionist/work.seq_mult
# Loading work.seq_mult
# time=0, a= x, b=x, ab_valid=x, rst=0, z=  0, z_valid=0, ab_ready=1
# time=5, a= x, b=x, ab_valid=x, rst=1, z=  x, z_valid=0, ab_ready=1
# time=11, a= 1, b=1, ab_valid=0, rst=1, z=  x, z_valid=0, ab_ready=1
# time=13, a=13, b=1, ab_valid=1, rst=1, z=  x, z_valid=0, ab_ready=1
# time=15, a=18, b=1, ab_valid=1, rst=1, z=  x, z_valid=0, ab_ready=1
# time=17, a=22, b=1, ab_valid=1, rst=1, z=  0, z_valid=0, ab_ready=0
# time=19, a=12, b=1, ab_valid=1, rst=1, z= 18, z_valid=0, ab_ready=0
# time=21, a= 5, b=2, ab_valid=0, rst=1, z= 18, z_valid=1, ab_ready=1
# time=23, a=23, b=2, ab_valid=1, rst=1, z=  0, z_valid=0, ab_ready=0
# time=25, a=18, b=2, ab_valid=1, rst=1, z=  0, z_valid=0, ab_ready=0
# time=27, a= 5, b=0, ab_valid=0, rst=1, z= 10, z_valid=0, ab_ready=0
# time=29, a=13, b=1, ab_valid=1, rst=1, z= 10, z_valid=1, ab_ready=1
# time=31, a=10, b=0, ab_valid=1, rst=1, z= 10, z_valid=0, ab_ready=1
# time=33, a=10, b=1, ab_valid=0, rst=1, z=  0, z_valid=0, ab_ready=0
# time=35, a=19, b=1, ab_valid=0, rst=1, z=  0, z_valid=1, ab_ready=1
# time=37, a=11, b=1, ab_valid=1, rst=1, z=  0, z_valid=0, ab_ready=1
# time=39, a=14, b=1, ab_valid=0, rst=1, z=  0, z_valid=0, ab_ready=1
# time=41, a= 3, b=2, ab_valid=1, rst=1, z=  0, z_valid=0, ab_ready=0
# time=43, a=28, b=2, ab_valid=0, rst=1, z= 14, z_valid=0, ab_ready=0
# time=45, a= 1, b=0, ab_valid=0, rst=1, z= 14, z_valid=1, ab_ready=1
# time=47, a= 9, b=3, ab_valid=0, rst=1, z= 14, z_valid=0, ab_ready=1
# time=49, a= 6, b=2, ab_valid=0, rst=1, z= 14, z_valid=0, ab_ready=1
# time=51, a=10, b=3, ab_valid=0, rst=1, z= 14, z_valid=0, ab_ready=1
# time=53, a= 5, b=3, ab_valid=1, rst=1, z= 14, z_valid=0, ab_ready=1
# time=55, a=26, b=2, ab_valid=1, rst=1, z= 14, z_valid=0, ab_ready=1
# time=57, a=17, b=1, ab_valid=1, rst=1, z=  0, z_valid=0, ab_ready=0
# time=59, a=12, b=3, ab_valid=0, rst=1, z=  0, z_valid=0, ab_ready=0
# time=61, a=24, b=3, ab_valid=1, rst=1, z= 52, z_valid=0, ab_ready=0
# time=63, a=28, b=3, ab_valid=1, rst=1, z= 52, z_valid=1, ab_ready=1
# time=65, a= 9, b=0, ab_valid=1, rst=1, z=  0, z_valid=0, ab_ready=0
# time=67, a=17, b=2, ab_valid=1, rst=1, z= 28, z_valid=0, ab_ready=0
# time=69, a= 2, b=0, ab_valid=0, rst=1, z= 84, z_valid=0, ab_ready=0
# time=71, a=29, b=2, ab_valid=1, rst=1, z= 84, z_valid=1, ab_ready=1
# time=73, a=13, b=1, ab_valid=0, rst=1, z= 84, z_valid=0, ab_ready=1
# time=75, a=19, b=1, ab_valid=1, rst=1, z=  0, z_valid=0, ab_ready=0
# time=77, a=27, b=1, ab_valid=0, rst=1, z= 13, z_valid=0, ab_ready=0
# time=79, a=10, b=0, ab_valid=1, rst=1, z= 13, z_valid=1, ab_ready=1
# time=81, a=14, b=0, ab_valid=0, rst=1, z= 13, z_valid=0, ab_ready=1
# time=83, a= 6, b=3, ab_valid=0, rst=1, z=  0, z_valid=0, ab_ready=0
# time=85, a=15, b=3, ab_valid=1, rst=1, z=  0, z_valid=1, ab_ready=1
# time=87, a= 4, b=3, ab_valid=1, rst=1, z=  0, z_valid=0, ab_ready=1
# time=89, a= 6, b=2, ab_valid=1, rst=1, z=  0, z_valid=0, ab_ready=0
# time=91, a=13, b=2, ab_valid=1, rst=1, z=  4, z_valid=0, ab_ready=0
# time=93, a=21, b=3, ab_valid=1, rst=1, z= 12, z_valid=0, ab_ready=0
# time=95, a= 4, b=0, ab_valid=1, rst=1, z= 12, z_valid=1, ab_ready=1
# time=97, a=11, b=2, ab_valid=0, rst=1, z=  0, z_valid=0, ab_ready=0
# time=99, a=26, b=1, ab_valid=0, rst=1, z=  0, z_valid=1, ab_ready=1
# time=101, a=22, b=2, ab_valid=1, rst=1, z=  0, z_valid=0, ab_ready=1
# time=103, a=10, b=2, ab_valid=1, rst=1, z=  0, z_valid=0, ab_ready=1
# time=105, a=25, b=0, ab_valid=0, rst=1, z=  0, z_valid=0, ab_ready=0
# time=107, a=19, b=0, ab_valid=0, rst=1, z=  0, z_valid=0, ab_ready=0
# time=109, a=27, b=1, ab_valid=1, rst=1, z= 20, z_valid=0, ab_ready=0
# time=111, a=27, b=1, ab_valid=0, rst=1, z= 20, z_valid=1, ab_ready=1
# time=113, a=27, b=1, ab_valid=0, rst=1, z=  0, z_valid=0, ab_ready=0
# time=115, a=27, b=1, ab_valid=0, rst=1, z= 27, z_valid=0, ab_ready=0
# time=117, a=27, b=1, ab_valid=0, rst=1, z= 27, z_valid=1, ab_ready=1
# time=119, a=27, b=1, ab_valid=0, rst=1, z= 27, z_valid=0, ab_ready=1
# ** Note: $finish    : tb.v(51)
#    Time: 211 ns  Iteration: 0  Instance: /tb
# 1
# Break in Module tb at tb.v line 51
env ..
# sim:/tb
env ..
# sim:/tb
do ../run.do
# QuestaSim-64 vlog 10.6c Compiler 2017.07 Jul 26 2017
# Start time: 17:10:46 on May 06,2023
# vlog -reportprogress 300 tb.v 
# -- Compiling module seq_mult
# -- Compiling module tb
# 
# Top level modules:
# 	tb
# End time: 17:10:46 on May 06,2023, Elapsed time: 0:00:00
# Errors: 0, Warnings: 0
# End time: 17:10:50 on May 06,2023, Elapsed time: 0:01:38
# Errors: 0, Warnings: 1
# vsim -novopt tb 
# Start time: 17:10:50 on May 06,2023
# ** Warning: (vsim-8891) All optimizations are turned off because the -novopt switch is in effect. This will cause your simulation to run very slowly. If you are using this switch to preserve visibility for Debug or PLI features please see the User's Manual section on Preserving Object Visibility with vopt.
# Refreshing C:/Users/ibrah/OneDrive/Documents/Github/Ibrahim-List/Submits/RTL_Design_and_Integration_Material/Ibrahim_Verilog_Codes/13_Sequential_Multiplier_Constructionist/work.tb
# Loading work.tb
# Refreshing C:/Users/ibrah/OneDrive/Documents/Github/Ibrahim-List/Submits/RTL_Design_and_Integration_Material/Ibrahim_Verilog_Codes/13_Sequential_Multiplier_Constructionist/work.seq_mult
# Loading work.seq_mult
# time=0, a= x, b=x, ab_valid=x, rst=0, z=  0, z_valid=0, ab_ready=1
# time=5, a= x, b=x, ab_valid=x, rst=1, z=  x, z_valid=0, ab_ready=1
# time=11, a= 1, b=1, ab_valid=0, rst=1, z=  x, z_valid=0, ab_ready=1
# time=13, a=13, b=1, ab_valid=1, rst=1, z=  x, z_valid=0, ab_ready=1
# time=15, a=18, b=1, ab_valid=1, rst=1, z=  x, z_valid=0, ab_ready=1
# time=17, a=22, b=1, ab_valid=1, rst=1, z=  0, z_valid=0, ab_ready=0
# time=19, a=12, b=1, ab_valid=1, rst=1, z= 18, z_valid=0, ab_ready=0
# time=21, a= 5, b=2, ab_valid=0, rst=1, z= 18, z_valid=1, ab_ready=1
# time=23, a=23, b=2, ab_valid=1, rst=1, z=  0, z_valid=0, ab_ready=0
# time=25, a=18, b=2, ab_valid=1, rst=1, z=  0, z_valid=0, ab_ready=0
# time=27, a= 5, b=0, ab_valid=0, rst=1, z= 10, z_valid=0, ab_ready=0
# time=29, a=13, b=1, ab_valid=1, rst=1, z= 10, z_valid=1, ab_ready=1
# time=31, a=10, b=0, ab_valid=1, rst=1, z= 10, z_valid=0, ab_ready=1
# time=33, a=10, b=1, ab_valid=0, rst=1, z=  0, z_valid=0, ab_ready=0
# time=35, a=19, b=1, ab_valid=0, rst=1, z=  0, z_valid=1, ab_ready=1
# time=37, a=11, b=1, ab_valid=1, rst=1, z=  0, z_valid=0, ab_ready=1
# time=39, a=14, b=1, ab_valid=0, rst=1, z=  0, z_valid=0, ab_ready=1
# time=41, a= 3, b=2, ab_valid=1, rst=1, z=  0, z_valid=0, ab_ready=0
# time=43, a=28, b=2, ab_valid=0, rst=1, z= 14, z_valid=0, ab_ready=0
# time=45, a= 1, b=0, ab_valid=0, rst=1, z= 14, z_valid=1, ab_ready=1
# time=47, a= 9, b=3, ab_valid=0, rst=1, z= 14, z_valid=0, ab_ready=1
# time=49, a= 6, b=2, ab_valid=0, rst=1, z= 14, z_valid=0, ab_ready=1
# time=51, a=10, b=3, ab_valid=0, rst=1, z= 14, z_valid=0, ab_ready=1
# time=53, a= 5, b=3, ab_valid=1, rst=1, z= 14, z_valid=0, ab_ready=1
# time=55, a=26, b=2, ab_valid=1, rst=1, z= 14, z_valid=0, ab_ready=1
# time=57, a=17, b=1, ab_valid=1, rst=1, z=  0, z_valid=0, ab_ready=0
# time=59, a=12, b=3, ab_valid=0, rst=1, z=  0, z_valid=0, ab_ready=0
# time=61, a=24, b=3, ab_valid=1, rst=1, z= 52, z_valid=0, ab_ready=0
# time=63, a=28, b=3, ab_valid=1, rst=1, z= 52, z_valid=1, ab_ready=1
# time=65, a= 9, b=0, ab_valid=1, rst=1, z=  0, z_valid=0, ab_ready=0
# time=67, a=17, b=2, ab_valid=1, rst=1, z= 28, z_valid=0, ab_ready=0
# time=69, a= 2, b=0, ab_valid=0, rst=1, z= 84, z_valid=0, ab_ready=0
# time=71, a=29, b=2, ab_valid=1, rst=1, z= 84, z_valid=1, ab_ready=1
# time=73, a=13, b=1, ab_valid=0, rst=1, z= 84, z_valid=0, ab_ready=1
# time=75, a=19, b=1, ab_valid=1, rst=1, z=  0, z_valid=0, ab_ready=0
