Submits/RTL_Design_and_Integration_Material/Ibrahim_Verilog_Codes/5_UpDowncounter/transcript
# //  Questa Sim-64
# //  Version 10.6c win64 Jul 26 2017
# //
# //  Copyright 1991-2017 Mentor Graphics Corporation
# //  All Rights Reserved.
# //
# //  QuestaSim and its associated documentation contain trade
# //  secrets and commercial or financial information that are the property of
# //  Mentor Graphics Corporation and are privileged, confidential,
# //  and exempt from disclosure under the Freedom of Information Act,
# //  5 U.S.C. Section 552. Furthermore, this information
# //  is prohibited from disclosure under the Trade Secrets Act,
# //  18 U.S.C. Section 1905.
# //
do ../run.do
# QuestaSim-64 vlog 10.6c Compiler 2017.07 Jul 26 2017
# Start time: 08:02:58 on Apr 19,2023
# vlog -reportprogress 300 tb_upDownCounter.v 
# -- Compiling module up_down_counter
# -- Compiling module tb
# 
# Top level modules:
# 	tb
# End time: 08:02:58 on Apr 19,2023, Elapsed time: 0:00:00
# Errors: 0, Warnings: 0
# vsim -novopt tb 
# Start time: 08:02:58 on Apr 19,2023
# ** Warning: (vsim-8891) All optimizations are turned off because the -novopt switch is in effect. This will cause your simulation to run very slowly. If you are using this switch to preserve visibility for Debug or PLI features please see the User's Manual section on Preserving Object Visibility with vopt.
# Refreshing C:/Users/ibrah/Desktop/Documents/Ibrahim_Verilog_Codes/5_UpDowncounter/work.tb
# Loading work.tb
# Refreshing C:/Users/ibrah/Desktop/Documents/Ibrahim_Verilog_Codes/5_UpDowncounter/work.up_down_counter
# Loading work.up_down_counter
# time=0, clk=0, reset=1, up_down=0, counter= x
# time=2, clk=1, reset=1, up_down=0, counter= 0
# time=4, clk=0, reset=1, up_down=0, counter= 0
# time=5, clk=0, reset=0, up_down=0, counter= 0
# time=6, clk=1, reset=0, up_down=0, counter=15
# time=7, clk=1, reset=0, up_down=1, counter=15
# time=8, clk=0, reset=0, up_down=1, counter=15
# time=10, clk=1, reset=0, up_down=1, counter= 0
# time=11, clk=1, reset=1, up_down=1, counter= 0
# time=12, clk=0, reset=1, up_down=1, counter= 0
# time=13, clk=0, reset=0, up_down=1, counter= 0
# time=14, clk=1, reset=0, up_down=1, counter= 1
# time=16, clk=0, reset=0, up_down=1, counter= 1
# time=18, clk=1, reset=0, up_down=1, counter= 2
# time=19, clk=1, reset=1, up_down=0, counter= 2
# time=20, clk=0, reset=1, up_down=0, counter= 2
# time=21, clk=0, reset=0, up_down=1, counter= 2
# time=22, clk=1, reset=0, up_down=1, counter= 3
# time=24, clk=0, reset=0, up_down=1, counter= 3
# time=25, clk=0, reset=1, up_down=0, counter= 3
# time=26, clk=1, reset=1, up_down=0, counter= 0
# time=27, clk=1, reset=0, up_down=1, counter= 0
# time=28, clk=0, reset=0, up_down=1, counter= 0
# time=30, clk=1, reset=0, up_down=1, counter= 1
# time=31, clk=1, reset=0, up_down=0, counter= 1
# time=32, clk=0, reset=0, up_down=0, counter= 1
# time=33, clk=0, reset=0, up_down=1, counter= 1
# time=34, clk=1, reset=0, up_down=1, counter= 2
# time=35, clk=1, reset=1, up_down=0, counter= 2
# time=36, clk=0, reset=1, up_down=0, counter= 2
# time=37, clk=0, reset=0, up_down=1, counter= 2
# time=38, clk=1, reset=0, up_down=1, counter= 3
# time=39, clk=1, reset=1, up_down=0, counter= 3
# time=40, clk=0, reset=1, up_down=0, counter= 3
# time=41, clk=0, reset=0, up_down=1, counter= 3
# time=42, clk=1, reset=0, up_down=1, counter= 4
# time=43, clk=1, reset=1, up_down=1, counter= 4
# time=44, clk=0, reset=1, up_down=1, counter= 4
# time=45, clk=0, reset=1, up_down=0, counter= 4
# time=46, clk=1, reset=1, up_down=0, counter= 0
# time=47, clk=1, reset=1, up_down=1, counter= 0
# time=48, clk=0, reset=1, up_down=1, counter= 0
# time=49, clk=0, reset=1, up_down=0, counter= 0
# time=50, clk=1, reset=1, up_down=0, counter= 0
# time=52, clk=0, reset=1, up_down=0, counter= 0
# time=53, clk=0, reset=0, up_down=0, counter= 0
# time=54, clk=1, reset=0, up_down=0, counter=15
# time=55, clk=1, reset=0, up_down=1, counter=15
# time=56, clk=0, reset=0, up_down=1, counter=15
# time=57, clk=0, reset=0, up_down=0, counter=15
# time=58, clk=1, reset=0, up_down=0, counter=14
# time=59, clk=1, reset=0, up_down=1, counter=14
# time=60, clk=0, reset=0, up_down=1, counter=14
# time=62, clk=1, reset=0, up_down=1, counter=15
# time=64, clk=0, reset=0, up_down=1, counter=15
# time=65, clk=0, reset=1, up_down=1, counter=15
# time=66, clk=1, reset=1, up_down=1, counter= 0
# time=67, clk=1, reset=1, up_down=0, counter= 0
# time=68, clk=0, reset=1, up_down=0, counter= 0
# time=69, clk=0, reset=0, up_down=0, counter= 0
# time=70, clk=1, reset=0, up_down=0, counter=15
# time=72, clk=0, reset=0, up_down=0, counter=15
# time=73, clk=0, reset=1, up_down=0, counter=15
# time=74, clk=1, reset=1, up_down=0, counter= 0
# time=75, clk=1, reset=0, up_down=1, counter= 0
# time=76, clk=0, reset=0, up_down=1, counter= 0
# time=77, clk=0, reset=1, up_down=0, counter= 0
# time=78, clk=1, reset=1, up_down=0, counter= 0
# time=79, clk=1, reset=1, up_down=1, counter= 0
# time=80, clk=0, reset=1, up_down=1, counter= 0
# time=81, clk=0, reset=0, up_down=1, counter= 0
# time=82, clk=1, reset=0, up_down=1, counter= 1
# time=83, clk=1, reset=1, up_down=1, counter= 1
# time=84, clk=0, reset=1, up_down=1, counter= 1
# time=86, clk=1, reset=1, up_down=1, counter= 0
# time=87, clk=1, reset=0, up_down=1, counter= 0
# time=88, clk=0, reset=0, up_down=1, counter= 0
# time=89, clk=0, reset=1, up_down=0, counter= 0
# time=90, clk=1, reset=1, up_down=0, counter= 0
# time=92, clk=0, reset=1, up_down=0, counter= 0
# time=93, clk=0, reset=0, up_down=1, counter= 0
# time=94, clk=1, reset=0, up_down=1, counter= 1
# time=95, clk=1, reset=1, up_down=1, counter= 1
# time=96, clk=0, reset=1, up_down=1, counter= 1
# time=98, clk=1, reset=1, up_down=1, counter= 0
# time=99, clk=1, reset=1, up_down=0, counter= 0
# ** Note: $finish    : tb_upDownCounter.v(39)
#    Time: 100 ns  Iteration: 0  Instance: /tb
# 1
# Break in Module tb at tb_upDownCounter.v line 39
# End time: 11:49:35 on Apr 19,2023, Elapsed time: 3:46:37
# Errors: 0, Warnings: 1
